<?xml version="1.0" encoding="UTF-8" standalone="no"?>
<!-- Generator: Adobe Illustrator 19.0.0, SVG Export Plug-In . SVG Version: 6.00 Build 0)  -->

<svg
   xmlns:dc="http://purl.org/dc/elements/1.1/"
   xmlns:cc="http://creativecommons.org/ns#"
   xmlns:rdf="http://www.w3.org/1999/02/22-rdf-syntax-ns#"
   xmlns:svg="http://www.w3.org/2000/svg"
   xmlns="http://www.w3.org/2000/svg"
   xmlns:sodipodi="http://sodipodi.sourceforge.net/DTD/sodipodi-0.dtd"
   xmlns:inkscape="http://www.inkscape.org/namespaces/inkscape"
   version="1.1"
   id="Capa_1"
   x="0px"
   y="0px"
   viewBox="0 0 2786.844 506.85172"
   xml:space="preserve"
   sodipodi:docname="obrimelcodicoco.svg"
   width="2786.844"
   height="506.85172"
   inkscape:version="0.92.2 (5c3e80d, 2017-08-06)"><metadata
     id="metadata168"><rdf:RDF><cc:Work
         rdf:about=""><dc:format>image/svg+xml</dc:format><dc:type
           rdf:resource="http://purl.org/dc/dcmitype/StillImage" /><dc:title></dc:title></cc:Work></rdf:RDF></metadata><defs
     id="defs166"><path
       style="fill:none;stroke:none;stroke-width:1px;stroke-linecap:butt;stroke-linejoin:miter;stroke-opacity:1"
       d="m -370.78007,297.99271 c 0,0 83.3633,-202.809235 250.08991,-200.320778 166.726612,2.488458 166.726612,2.488458 166.726612,2.488458"
       id="path176-3"
       inkscape:connector-curvature="0" /></defs><sodipodi:namedview
     pagecolor="#ffffff"
     bordercolor="#666666"
     borderopacity="1"
     objecttolerance="10"
     gridtolerance="10"
     guidetolerance="10"
     inkscape:pageopacity="0"
     inkscape:pageshadow="2"
     inkscape:window-width="1280"
     inkscape:window-height="987"
     id="namedview164"
     showgrid="false"
     fit-margin-top="0"
     fit-margin-left="0"
     fit-margin-right="0"
     fit-margin-bottom="0"
     inkscape:zoom="0.20092773"
     inkscape:cx="1342.3166"
     inkscape:cy="1370.0258"
     inkscape:window-x="3840"
     inkscape:window-y="0"
     inkscape:window-maximized="1"
     inkscape:current-layer="Capa_1" /><path
     style="fill:#8b5e3c"
     d="m 73.710003,433.14163 c -106.08,-106.065 -96.528,-287.593 21.337,-405.459005 L 479.169,411.80563 c -117.864,117.88 -299.393,127.402 -405.458997,21.336"
     id="path109"
     inkscape:connector-curvature="0" /><path
     style="fill:#603913"
     d="m 95.048003,27.681625 c -58.925,58.925 -20.718,192.694005 85.347997,298.775005 106.096,106.065 239.85,144.273 298.775,85.348 58.925,-58.91 20.718,-192.679 -85.362,-298.76 C 287.729,6.9636254 153.958,-31.228375 95.048003,27.681625"
     id="path111"
     inkscape:connector-curvature="0" /><path
     style="fill:#f5f8fa"
     d="m 467.324,343.35463 c 3.455,3.471 8.45,5.071 13.384,4.165 5.839,-1.072 10.503,-5.462 11.921,-11.242 1.026,-4.059 23.766,-100.648 -45.465,-169.88 -16.9,-16.9 -41.995,-56.948 -49.132,-68.567005 -6.036,-6.262 -11.075,-4.074 -22.605,-15.618 -5.281,-5.281 -21.201,-33.922 -66.983,9.491 -5.281,5.01 -5.885,13.249005 -1.751,19.239005 l 158.864,230.298 c 0.545,0.77 1.133,1.479 1.767,2.114"
     id="path113"
     inkscape:connector-curvature="0" /><path
     style="fill:#603913"
     d="m 376.04,71.613625 c -27.66,-21.684 -72.083,-4.753 -82.993,5.976 -10.306,10.291 -7.047,29.937005 1.223,41.919005 l 158.879,230.314 c 1.041,1.525 2.218,2.927 3.501,4.195 6.926,6.941 16.916,10.156 26.784,8.345 11.695,-2.128 21.02,-10.924 23.857,-22.468 1.086,-4.421 25.712,-108.993 -49.449,-184.169 -13.46,-13.46 -29.258,-26.211 -43.895,-43.941 -4.964,-6.398 -17.897,-21.745005 -31.311,-35.143005 z m -19.164,20.431 c 10.668,10.668005 21.985,21.381005 21.985,21.381005 0,0 36.275,42.297 57.642,63.633 63.996,64.026 41.497,155.62 41.497,155.62 L 302.16,96.133625 c 0,0 42.13,-15.724 54.716,-4.089"
     id="path115"
     inkscape:connector-curvature="0" /><path
     style="fill:#f5f8fa"
     d="m 116.385,49.025625 c -47.139997,47.14 -8.933,161.791005 85.362,256.071005 94.28,94.28 208.932,132.503 256.072,85.362 47.14,-47.141 8.933,-161.791 -85.348,-256.071 C 278.177,40.091625 163.526,1.8846254 116.385,49.025625"
     id="path117"
     inkscape:connector-curvature="0" /><g
     id="g123"
     transform="translate(2.5808841e-6,-2.5743746)"><path
       style="fill:#99aab5"
       d="m 147.726,84.278 c -34.978,34.978 -1.253,125.455 75.357,202.066 76.626,76.625 167.072,110.335 202.066,75.357 34.978,-34.992 1.253,-125.455 -75.357,-202.066 C 273.182,83.024 182.704,49.285 147.726,84.278"
       id="path119"
       inkscape:connector-curvature="0" /><path
       style="fill:#99aab5"
       d="m 295.416,130.49 17.746,-5.055 c 8.48,-4.708 20.447,-5.039 28.61,2.505 l 18.288,19.209 c 8.647,10.412 28.942,32.262 45.178,48.498 57.446,57.446 34.992,131.612 34.012,134.751 -0.86,2.746 -3.214,4.753 -6.066,5.19 -2.399,0.362 -4.799,-0.437 -6.473,-2.128 -0.317,-0.302 -0.604,-0.649 -0.86,-1.026 L 293.106,141.264 c -1.192,-1.72 -1.63,-3.848 -1.192,-5.885 0.438,-2.052 1.705,-3.803 3.502,-4.889"
       id="path121"
       inkscape:connector-curvature="0" /></g><path
     style="fill:#f5f8fa"
     d="m 349.148,371.10463 c 0,0 -48.422,-31.462 -56.904,-56.904 -9.491,-28.444 -70.348,-33.982 -79.824,-62.441 -9.461,-28.444 -25.291,-71.902 -33.997,-89.301 -8.692,-17.399 -18.983,-0.016 -28.46,-28.46 -9.477,-28.474 -28.428,-47.441005 -28.428,-47.441005 0,0 0,132.805005 28.428,161.249005 28.46,28.46 142.28,142.28 151.772,132.773 9.478,-9.475 47.413,-9.475 47.413,-9.475"
     id="path125"
     inkscape:connector-curvature="0" /><path
     style="fill:#603913"
     d="m 335.245,396.37563 c 0,0 -56.284,-38.282 -65.127,-64.795 -9.884,-29.636 -79.824,-39.519 -89.708,-69.156 -9.884,-29.636 -24.068,-82.782 -28.867,-88.908 -13.823,-17.79 -19.738,-0.016 -29.636,-29.621 -9.868,-29.681 -29.620997,-49.419005 -29.620997,-49.419005 0,0 0,138.312005 29.620997,167.948005 29.636,29.651 148.196,148.196 158.08,138.312 9.898,-9.869 55.258,-4.361 55.258,-4.361"
     id="path127"
     inkscape:connector-curvature="0" /><path
     style="fill:#8b5e3c"
     d="m 319.115,422.47363 c 0,0 -54.474,-35.385 -64.01,-64.01 -10.668,-32.006 -96.046,-53.357 -106.714,-85.378 -10.668,-32.006 -10.668,-74.678 -21.336,-85.348 -10.668,-10.684 -21.336,0 -32.005997,-32.02 -10.669,-32.005 -32.006,-53.342 -32.006,-53.342 0,0 0,149.372 32.006,181.393 32.005997,32.006 160.040997,160.041 170.709997,149.372 10.683,-10.667 53.356,-10.667 53.356,-10.667"
     id="path129"
     inkscape:connector-curvature="0" /><path
     style="fill:#a97c50"
     d="m 183.838,461.75963 c 1.056,1.072 2.52,1.781 4.21,1.992 56.872,6.429 104.013,-17.157 106.005,-18.168 4.059,-2.067 6.036,-6.881 4.376,-10.774 -1.63,-3.908 -6.292,-5.387 -10.382,-3.29 -0.437,0.226 -41.391,27.81 -93.27,21.925 -4.301,-0.483 -12.464,-0.226 -13.4,4.165 -0.557,2.641 0.785,2.49 2.461,4.15 M 27.554003,323.25263 c 1.735,1.72 1.614,3.199 4.376,2.49 4.346,-1.102 4.497,-7.787 3.848,-12.042 -7.424,-48.152 5.432,-98.143 27.78,-156.208 1.63,-4.225 -0.407,-8.677 -4.436,-9.838 -4.09,-1.192 -8.736,1.267 -10.352,5.508 -23.466,60.856 -31.04,115.208 -23.178,166.167 0.241,1.584 0.952,2.911 1.962,3.923 M 153.764,473.66463 c 1.374,-4.301 12.615,-0.905 16.795,0.016 104.647,23.027 175.945,-20.899 176.73,-21.261 4.104,-2.053 8.736,-0.513 10.336,3.365 1.6,3.893 -0.393,8.722 -4.467,10.744 -3.395,1.705 -72.551,38.479 -182.962,14.184 -1.374,-0.317 -10.88,-1.977 -11.8,-2.897 -1.841,-1.842 -5.568,-1.252 -4.632,-4.151"
     id="path131"
     inkscape:connector-curvature="0" /><g
     id="g133"
     transform="translate(2.5808841e-6,-2.5743746)" /><g
     id="g135"
     transform="translate(2.5808841e-6,-2.5743746)" /><g
     id="g137"
     transform="translate(2.5808841e-6,-2.5743746)" /><g
     id="g139"
     transform="translate(2.5808841e-6,-2.5743746)" /><g
     id="g141"
     transform="translate(2.5808841e-6,-2.5743746)" /><g
     id="g143"
     transform="translate(2.5808841e-6,-2.5743746)" /><g
     id="g145"
     transform="translate(2.5808841e-6,-2.5743746)" /><g
     id="g147"
     transform="translate(2.5808841e-6,-2.5743746)" /><g
     id="g149"
     transform="translate(2.5808841e-6,-2.5743746)" /><g
     id="g151"
     transform="translate(2.5808841e-6,-2.5743746)" /><g
     id="g153"
     transform="translate(2.5808841e-6,-2.5743746)" /><g
     id="g155"
     transform="translate(2.5808841e-6,-2.5743746)" /><g
     id="g157"
     transform="translate(2.5808841e-6,-2.5743746)" /><g
     id="g159"
     transform="translate(2.5808841e-6,-2.5743746)" /><g
     id="g161"
     transform="translate(2.5808841e-6,-2.5743746)" /><path
     style="fill:none;stroke:none;stroke-width:1px;stroke-linecap:butt;stroke-linejoin:miter;stroke-opacity:1"
     d="m -370.78007,295.41834 c 0,0 83.3633,-202.80924 250.08991,-200.320783 166.726615,2.488458 166.726615,2.488458 166.726615,2.488458"
     id="path176"
     inkscape:connector-curvature="0" /><text
     xml:space="preserve"
     style="font-style:normal;font-weight:normal;font-size:80.80608368px;line-height:1.25;font-family:sans-serif;letter-spacing:0px;word-spacing:0px;fill:#603913;fill-opacity:1;stroke:none;stroke-width:2.02015209;"
     x="555.59418"
     y="501.37326"
     id="text4727"><tspan
       sodipodi:role="line"
       id="tspan4725"
       x="555.59418"
       y="501.37326"
       style="font-style:normal;font-variant:normal;font-weight:normal;font-stretch:normal;font-size:466.66665649px;font-family:'Liberation Sans Narrow';-inkscape-font-specification:'Liberation Sans Narrow';stroke-width:2.02015209;fill:#603913;">Obrim el codi</tspan></text>
</svg>